{
	"info": {
		"_postman_id": "96b66af2-567e-4202-a617-d8f0fcd371ba",
		"name": "prueba-asteci",
		"schema": "https://schema.getpostman.com/json/collection/v2.1.0/collection.json",
		"_exporter_id": "23723824"
	},
	"item": [
		{
			"name": "Guardar Incidente",
			"request": {
				"method": "POST",
				"header": [],
				"body": {
					"mode": "raw",
					"raw": "{\r\n    \"nombreEquipo\": \"computo pedro\",\r\n    \"marca\" : \"HP\",\r\n    \"fecha\" : \"2023-07-17\",\r\n    \"estatus\" : 0,\r\n    \"operador\" : \"Miguel\"\r\n}",
					"options": {
						"raw": {
							"language": "json"
						}
					}
				},
				"url": {
					"raw": "http://localhost:8080/v1/api/incidentes",
					"protocol": "http",
					"host": [
						"localhost"
					],
					"port": "8080",
					"path": [
						"v1",
						"api",
						"incidentes"
					]
				}
			},
			"response": []
		},
		{
			"name": "Buscar incidentes pot queryparams - sin queryparams",
			"request": {
				"method": "GET",
				"header": [],
				"url": {
					"raw": "http://localhost:8080/v1/api/incidentes?operador=Miguel",
					"protocol": "http",
					"host": [
						"localhost"
					],
					"port": "8080",
					"path": [
						"v1",
						"api",
						"incidentes"
					],
					"query": [
						{
							"key": "dia",
							"value": "2023-07-17T00:00:00.000+00:00",
							"disabled": true
						},
						{
							"key": "operador",
							"value": "Miguel"
						}
					]
				}
			},
			"response": []
		},
		{
			"name": "Obtener consultas (abiertar , cerradas)",
			"request": {
				"method": "GET",
				"header": [],
				"url": {
					"raw": "http://localhost:8080/v1/api/consultas",
					"protocol": "http",
					"host": [
						"localhost"
					],
					"port": "8080",
					"path": [
						"v1",
						"api",
						"consultas"
					]
				}
			},
			"response": []
		},
		{
			"name": "Actualizar Incidente",
			"request": {
				"method": "PUT",
				"header": [],
				"body": {
					"mode": "raw",
					"raw": "{\r\n    \"id\" : 2,\r\n    \"nombreEquipo\": \"computo pedro actualizado\",\r\n    \"marca\" : \"HP\",\r\n    \"fecha\" : \"2023-07-17\",\r\n    \"estatus\" : 1,\r\n    \"operador\" : \"Miguel\"\r\n}",
					"options": {
						"raw": {
							"language": "json"
						}
					}
				},
				"url": {
					"raw": "http://localhost:8080/v1/api/incidentes",
					"protocol": "http",
					"host": [
						"localhost"
					],
					"port": "8080",
					"path": [
						"v1",
						"api",
						"incidentes"
					]
				}
			},
			"response": []
		}
	]
}